{
  "type": "service_account",
  "project_id": "allxone-portall",
  "private_key_id": "6026d9a4dfee1fa5ac1f7d3bc19083ca0936061a",
  "private_key": "-----BEGIN PRIVATE KEY-----\nMIIEvAIBADANBgkqhkiG9w0BAQEFAASCBKYwggSiAgEAAoIBAQCqYWE3npzIer4N\ni1Yt5fBim4g3HP3tH/WLqmDKMkJXTGmsH/hCGYpLoKDER478zqkBjwfXNTH7wgmK\nOHBDAlyvoUlmzwE2nEU3GqvaGAQeENZR3oseBmYjrBO44Vi3KptT0QZ5SiwhSumC\nSQHW2g/0xif9btAF7K8xiz9+iRqLMUjNeA497l8AJ1IuvszdOuBic/U2ROI6x9Ic\nCnfGiSi2t/ySM6R1qfCqp2ToHWJxMzJwNoK6qwgHImPyyzau8MXi4vueFem2KepR\n8W+kgLGsXn3+gmYtTB4cvijOFcqCRkkuKu04VkXV61SjZgO/sU6mKUaQhXErZ+T2\ngMjEBJURAgMBAAECggEACSVntqiyf8JThRZ8jIOUODXjTbqWILpbR/lgH2CL7kPj\nRQ61CObWNT243Zp+CPEG0mcpP4aq8YnisVda4uT7wN+UiTLd7L6eKlFppeAtyeej\nWqMatpSXO21dhGpf5NrCGnFtQpnuRSYAY5qb0TrU2hHgVA7klrnUNIGWKaquWKgI\n5DS4Up1VwqjEppN2GVMfZaXTjKInzxcyUdeLH+8nv443A25tz1MWbXsfYkjbiUyW\nLNWYoQsBDur21N8O5PrL9gPY8Kx56Z1OelArN4BoHxo9SGdVLrhBznt6vdeKoiRo\nQg/X8YyguNCO26WdGVCNns9HvzMP17zY5VoUbtfpYQKBgQDVFGx7lhzu8Ole+GgK\nLcy5WPFq311hbgdnEY9/LpoSOQpYEyg/I3UBcXPb2ln+UcN1PYrOrEMDabApI1uj\n/RgwoThkyamEtdauBE7R4QavcQ551mf9p3RwfFdybOTGIzUpkQ93vB75GHM1ZX0N\nmGq10/MOQBOgdtUT+Bcy3yG5oQKBgQDMsyNt64oUjO1iFtO5w5yUgUhGmuid9QFV\nRrI42mxC/IhZTadBQ8BxYrPLBis06/n7C/v2vMZA4ZKvGr1mrUQWYdbDIBbeUzkX\ne77SDX17xnMDE9VmgRb4YdLARVQJw/gvaTd9/RTt5rQQsQ/S+u05p+/JQ4BaHR8s\nwdE1TRGFcQKBgCX8HRau/PtvgPrIJ6vg3EUSYP8fUINE3Rb3n3AZu6eR+ZEX4S3Y\nQUx/kBraQv6+TqzAytTrCos6NQgwYG7MeJp6sxXsiUa6L8oXxIFPryRpcB4yJZmn\nV2+SCvjABsx3jEubq3k51P+s5yTWscNRr3w4i3S34YfSh0unB2OvOVDhAoGAHuzN\nZHTaNoKX9mK2d/EafcEOV0Rd8kcqfWSh1j8BbhlSzBMUOqLutvKPcROsgWFJMek8\nlqksVm79xyCGDrYMfEkpte7qJYpzLJ4QVRGerI1toMBlVAganUnCGjQfHx6RJzCB\nJrKOb+aTu5XUay5nmndJnaFqCbMum4dogOH0zLECgYB7KXDa2fmdEQhrw5enNlXF\nYiroVpP+qPdr9jy7E1CtSdG9c5mHV2qSU0QzUvuLuD94Ik9bZO3UsSzXATNH+0ik\nA846XdfPAO9HyrMKdfinUFOYE1U6wuHRJezzj7mQ+QfaNpMpjSueKbG6iz21ofCm\nR4gaMn5LcTSSDjGt3l0PIg==\n-----END PRIVATE KEY-----\n",
  "client_email": "portal-ui@allxone-portall.iam.gserviceaccount.com",
  "client_id": "115124901686489592051",
  "auth_uri": "https://accounts.google.com/o/oauth2/auth",
  "token_uri": "https://oauth2.googleapis.com/token",
  "auth_provider_x509_cert_url": "https://www.googleapis.com/oauth2/v1/certs",
  "client_x509_cert_url": "https://www.googleapis.com/robot/v1/metadata/x509/portal-ui%40allxone-portall.iam.gserviceaccount.com"
}
